Trabajo Final Opción 2
…
# Usa anti_join para eliminar esas noticias de la base "noticias"
noticias <- noticias |> 
  anti_join(noticias_error_ln, by = c("titulo" = "titulo"))

noticias_tidy <- noticias %>%
  unnest_tokens(input = texto, 
                output = word,
                token = "words") 

noticias_tidy |> 
  slice(1:50) |> 
  print()

## # A tibble: 50 × 10
##       id url         fecha       anio   mes   dia medio orientacion titulo word 
##    <dbl> <chr>       <date>     <dbl> <dbl> <dbl> <chr> <chr>       <chr>  <chr>
##  1 51960 https://ww… 2019-07-01  2019     7     1 clar… + conserva… Copa … arge…
##  2 51960 https://ww… 2019-07-01  2019     7     1 clar… + conserva… Copa … arra…
##  3 51960 https://ww… 2019-07-01  2019     7     1 clar… + conserva… Copa … a    
##  4 51960 https://ww… 2019-07-01  2019     7     1 clar… + conserva… Copa … paso 
##  5 51960 https://ww… 2019-07-01  2019     7     1 clar… + conserva… Copa … flojo
##  6 51960 https://ww… 2019-07-01  2019     7     1 clar… + conserva… Copa … en   
##  7 51960 https://ww… 2019-07-01  2019     7     1 clar… + conserva… Copa … esta 
##  8 51960 https://ww… 2019-07-01  2019     7     1 clar… + conserva… Copa … copa 
##  9 51960 https://ww… 2019-07-01  2019     7     1 clar… + conserva… Copa … amér…
## 10 51960 https://ww… 2019-07-01  2019     7     1 clar… + conserva… Copa … pero 
## # ℹ 40 more rows
…
## Rows: 608 Columns: 1
## ── Column specification ────────────────────────────────────────────────────────
## Delimiter: ","
## chr (1): X1
## 
## ℹ Use `spec()` to retrieve the full column specification for this data.
## ℹ Specify the column types or set `show_col_types = FALSE` to quiet this message.

stop_words |> 
  slice(1:50) |> 
  print()

## # A tibble: 50 × 1
##    word       
##    <chr>      
##  1 a          
##  2 actualmente
##  3 adelante   
##  4 ademas     
##  5 afirmo     
##  6 agrego     
##  7 ahora      
##  8 ahi        
##  9 al         
## 10 algo       
## # ℹ 40 more rows
…
Procedemos a la eliminación de stopwords

corpus_noticias <- noticias_tidy %>%
  anti_join(stop_words, 
            by = c("word" = "word"))

# Elimina ambos archivos porque ya no lo necesitamos
rm(stop_words, noticias_tidy)

corpus_noticias |> 
  slice(1:50) |> 
  print()

## # A tibble: 50 × 10
##       id url         fecha       anio   mes   dia medio orientacion titulo word 
##    <dbl> <chr>       <date>     <dbl> <dbl> <dbl> <chr> <chr>       <chr>  <chr>
##  1 51960 https://ww… 2019-07-01  2019     7     1 clar… + conserva… Copa … arge…
##  2 51960 https://ww… 2019-07-01  2019     7     1 clar… + conserva… Copa … arra…
##  3 51960 https://ww… 2019-07-01  2019     7     1 clar… + conserva… Copa … paso 
##  4 51960 https://ww… 2019-07-01  2019     7     1 clar… + conserva… Copa … flojo
##  5 51960 https://ww… 2019-07-01  2019     7     1 clar… + conserva… Copa … copa 
##  6 51960 https://ww… 2019-07-01  2019     7     1 clar… + conserva… Copa … amér…
##  7 51960 https://ww… 2019-07-01  2019     7     1 clar… + conserva… Copa … supe…
##  8 51960 https://ww… 2019-07-01  2019     7     1 clar… + conserva… Copa … obst…
##  9 51960 https://ww… 2019-07-01  2019     7     1 clar… + conserva… Copa … riva…
## 10 51960 https://ww… 2019-07-01  2019     7     1 clar… + conserva… Copa … llegó
## # ℹ 40 more rows
…
corpus_tf_idf_medio |> 
  slice_max(n = 50,
            order_by = tf,
            # En caso de empates ("tie"), por default la función trae ambos valores; lo seteamos
            # para que sólo traiga uno
            with_ties = FALSE) |> 
  print()

## # A tibble: 50 × 6
##    medio     word           n      tf   idf tf_idf
##    <chr>     <chr>      <int>   <dbl> <dbl>  <dbl>
##  1 telam     frente       183 0.00425     0      0
##  2 telam     presidente   177 0.00411     0      0
##  3 telam     gobierno     174 0.00404     0      0
##  4 telam     argentina    162 0.00376     0      0
##  5 pagina12  gobierno    1024 0.00363     0      0
##  6 pagina12  ciento       994 0.00352     0      0
##  7 lanacion  crédito      806 0.00348     0      0
##  8 perfil    argentina   1248 0.00345     0      0
##  9 minutouno gobierno     153 0.00339     0      0
## 10 clarin    argentina   1392 0.00334     0      0
## # ℹ 40 more rows
…
Buscamos las TF (las palabras más importantes/frecuentes)

 top_words_tf <- corpus_tf_idf_medio %>%
  group_by(medio) %>%
  slice_max(n = 10, 
            # Si seteamos otra variable en "order_by", obtenemos otra respuesta posible
            order_by = tf,
            with_ties = FALSE) %>%
  ungroup()
  
top_words_tf |>   
  print()

## # A tibble: 80 × 6
##    medio  word           n      tf   idf tf_idf
##    <chr>  <chr>      <int>   <dbl> <dbl>  <dbl>
##  1 clarin argentina   1392 0.00334     0      0
##  2 clarin gobierno    1313 0.00315     0      0
##  3 clarin presidente  1118 0.00269     0      0
##  4 clarin país        1051 0.00253     0      0
##  5 clarin millones     876 0.00210     0      0
##  6 clarin nacional     734 0.00176     0      0
##  7 clarin fernández    719 0.00173     0      0
##  8 clarin macri        707 0.00170     0      0
##  9 clarin frente       680 0.00163     0      0
## 10 clarin semana       614 0.00148     0      0
## # ℹ 70 more rows

Buscamos las IDF (las palabras más informativas)

top_words_idf <- corpus_tf_idf_medio %>%
  group_by(medio) %>%
  slice_max(n = 10, 
            # Si seteamos otra variable en "order_by", obtenemos otra respuesta posible
            order_by = idf,
            with_ties = FALSE) %>%
  ungroup()
  
top_words_idf |>   
  print()

## # A tibble: 80 × 6
##    medio  word            n        tf   idf    tf_idf
##    <chr>  <chr>       <int>     <dbl> <dbl>     <dbl>
##  1 clarin alces          29 0.0000697  2.08 0.000145 
##  2 clarin emj            27 0.0000649  2.08 0.000135 
##  3 clarin khashoggi      26 0.0000625  2.08 0.000130 
##  4 clarin mattarella     22 0.0000529  2.08 0.000110 
##  5 clarin dorothea       21 0.0000505  2.08 0.000105 
##  6 clarin ps             21 0.0000505  2.08 0.000105 
##  7 clarin lagaronne      20 0.0000481  2.08 0.0000999
##  8 clarin fujimori       18 0.0000432  2.08 0.0000899
##  9 clarin ravensbrück    18 0.0000432  2.08 0.0000899
## 10 clarin balcedo        17 0.0000408  2.08 0.0000849
## # ℹ 70 more rows
Buscamos las TF_IDF (la frecuencia ponderada o ajustada por la
importancia que tiene en el corpus)

top_words_tf_idf <- corpus_tf_idf_medio %>%
  group_by(medio) %>%
  slice_max(n = 10, 
            # Si seteamos otra variable en "order_by", obtenemos otra respuesta posible
            order_by = tf_idf,
            with_ties = FALSE) %>%
  ungroup()
  
top_words_tf_idf  |>   
  print()

## # A tibble: 80 × 6
##    medio  word          n        tf   idf   tf_idf
##    <chr>  <chr>     <int>     <dbl> <dbl>    <dbl>
##  1 clarin horóscopo    85 0.000204  1.39  0.000283
##  2 clarin regente      62 0.000149  1.39  0.000207
##  3 clarin mirá        516 0.00124   0.134 0.000166
##  4 clarin alces        29 0.0000697 2.08  0.000145
##  5 clarin afp         207 0.000497  0.288 0.000143
##  6 clarin clarín      421 0.00101   0.134 0.000135
##  7 clarin emj          27 0.0000649 2.08  0.000135
##  8 clarin khashoggi    26 0.0000625 2.08  0.000130
##  9 clarin merle        38 0.0000913 1.39  0.000127
## 10 clarin ap          112 0.000269  0.470 0.000126
## # ℹ 70 more rows
…
corpus_tf_idf_noticia |> 
  slice_max(n = 500,
            order_by = tf_idf,
            # En caso de empates ("tie"), por default la función trae ambos valores; lo seteamos
            # para que sólo traiga uno
            with_ties = FALSE) |> 
  print()

## # A tibble: 500 × 6
##    titulo                                        word      n     tf   idf tf_idf
##    <chr>                                         <chr> <int>  <dbl> <dbl>  <dbl>
##  1 La ONG Transparencia Internacional criticó a… tweet    14 0.165   4.90  0.807
##  2 ¿Se puede circular sin cédula azul?           cédu…    13 0.105   6.88  0.722
##  3 Donald Trump echó a su secretaria por hablar… west…     5 0.0769  8.83  0.679
##  4 Descubren un tejido que protege de las picad… graf…     8 0.0721  8.83  0.636
##  5 Paro de subtes: este jueves no habrá servici… bole…     5 0.0893  7.04  0.628
##  6 Ola de frío: cómo sigue el clima este jueves… nubl…     4 0.0976  6.27  0.611
##  7 Emoción en Hockenheim: Mick Schumacher dio u… schu…     5 0.0862  7.04  0.607
##  8 Nuevo Director de Syngenta Semillas           syng…     7 0.0745  8.14  0.606
##  9 Todo lo que hay que saber sobre La noche de … pizz…    12 0.0805  7.22  0.582
## 10 Un ranking de ovnis | Estados Unidos          avis…     5 0.0714  8.14  0.581
## # ℹ 490 more rows
…
set.seed(1234)

# Cross validation
embed_folds <- vfold_cv(train_embed, v = 5)

a_tunear_1 <- read_rds('models/a_tunear_1.rds')

Métricas y elección hiperparámetros

# Muestra las métricas en una tibble
a_tunear_1 |> 
  collect_metrics() |> 
  print()

## # A tibble: 120 × 8
##     mtry min_n .metric   .estimator  mean     n std_err .config              
##    <int> <int> <chr>     <chr>      <dbl> <int>   <dbl> <chr>                
##  1   234    10 f_meas    binary     0.774     5  0.0227 Preprocessor1_Model01
##  2   234    10 precision binary     0.723     5  0.0344 Preprocessor1_Model01
##  3   234    10 recall    binary     0.838     5  0.0249 Preprocessor1_Model01
##  4   234    10 roc_auc   binary     0.748     5  0.0233 Preprocessor1_Model01
##  5   195     5 f_meas    binary     0.780     5  0.0208 Preprocessor1_Model02
##  6   195     5 precision binary     0.726     5  0.0314 Preprocessor1_Model02
##  7   195     5 recall    binary     0.845     5  0.0154 Preprocessor1_Model02
##  8   195     5 roc_auc   binary     0.749     5  0.0240 Preprocessor1_Model02
##  9   148    24 f_meas    binary     0.773     5  0.0182 Preprocessor1_Model03
## 10   148    24 precision binary     0.723     5  0.0328 Preprocessor1_Model03
## # ℹ 110 more rows
…
# Creamos un nuevo flujo de trabajo, agregamos la receta y el modelo, y ajustamos a los datos de entrenamiento
tree_fit <- workflow() %>%
  add_recipe(receta) %>%
  add_model(final_rf) %>%
  fit(data = train_embed)

preds_embed <- test_embed %>%
        select(orientacion) %>%
        bind_cols(predict(tree_fit, test_embed, type="prob")) %>%
        bind_cols(predict(tree_fit, test_embed, type="class"))

print(preds_embed)

## # A tibble: 140 × 4
##    orientacion .pred_conservador .pred_progresista .pred_class
##    <fct>                   <dbl>             <dbl> <fct>      
##  1 conservador             0.779            0.221  conservador
##  2 progresista             0.103            0.897  progresista
##  3 conservador             0.41             0.59   progresista
##  4 progresista             0.704            0.296  conservador
##  5 conservador             0.980            0.0205 conservador
##  6 conservador             0.408            0.592  progresista
##  7 progresista             0.780            0.220  conservador
##  8 conservador             0.600            0.400  conservador
##  9 progresista             0.487            0.513  progresista
## 10 conservador             0.718            0.282  conservador
## # ℹ 130 more rows
…
set.seed(1234)

# Cross validation
embed_folds <- vfold_cv(train_embed, v = 5)

a_tunear_2 <- read_rds('models/a_tunear_2.rds')

Métricas y elección hiperparámetros

# Muestra las métricas en una tibble
a_tunear_2 |> 
  collect_metrics() |> 
  print()

## # A tibble: 120 × 8
##     mtry min_n .metric   .estimator  mean     n std_err .config              
##    <int> <int> <chr>     <chr>      <dbl> <int>   <dbl> <chr>                
##  1   234    10 f_meas    binary     0.694     5  0.0132 Preprocessor1_Model01
##  2   234    10 precision binary     0.780     5  0.0297 Preprocessor1_Model01
##  3   234    10 recall    binary     0.630     5  0.0223 Preprocessor1_Model01
##  4   234    10 roc_auc   binary     0.727     5  0.0296 Preprocessor1_Model01
##  5   195     5 f_meas    binary     0.697     5  0.0149 Preprocessor1_Model02
##  6   195     5 precision binary     0.792     5  0.0332 Preprocessor1_Model02
##  7   195     5 recall    binary     0.625     5  0.0137 Preprocessor1_Model02
##  8   195     5 roc_auc   binary     0.727     5  0.0303 Preprocessor1_Model02
##  9   148    24 f_meas    binary     0.700     5  0.0122 Preprocessor1_Model03
## 10   148    24 precision binary     0.794     5  0.0332 Preprocessor1_Model03
## # ℹ 110 more rows
…
# Crear un nuevo flujo de trabajo, agregar la receta y el modelo, y ajustar al conjunto de datos de entrenamiento en una sola línea
tree_fit <- workflow() %>%
  add_recipe(receta) %>%
  add_model(final_rf) %>%
  fit(data = train_embed)

preds_embed <- test_embed %>%
        select(orientacion) %>%
        bind_cols(predict(tree_fit, test_embed, type="prob")) %>%
        bind_cols(predict(tree_fit, test_embed, type="class"))

print(preds_embed)

## # A tibble: 141 × 4
##    orientacion .pred_conservador .pred_progresista .pred_class
##    <fct>                   <dbl>             <dbl> <fct>      
##  1 progresista             0.209             0.791 progresista
##  2 conservador             0.760             0.240 conservador
##  3 conservador             0.398             0.602 progresista
##  4 progresista             0.653             0.347 conservador
##  5 conservador             0.530             0.470 conservador
##  6 progresista             0.63              0.37  conservador
##  7 conservador             0.377             0.623 progresista
##  8 conservador             0.386             0.614 progresista
##  9 conservador             0.505             0.494 conservador
## 10 conservador             0.810             0.190 conservador
## # ℹ 131 more rows
…
# especifico la grilla
grid_lasso <- grid_regular(penalty(),
                           levels = 30)

a_tunear_3 <- read_rds('models/a_tunear_3.rds')

Métricas y elección hiperparámetros

# Muestra las métricas en una tibble
a_tunear_3 |> 
  collect_metrics() |> 
  print()

## # A tibble: 60 × 7
##     penalty .metric  .estimator  mean     n std_err .config              
##       <dbl> <chr>    <chr>      <dbl> <int>   <dbl> <chr>                
##  1 1   e-10 accuracy binary     0.676     5  0.0336 Preprocessor1_Model01
##  2 1   e-10 roc_auc  binary     0.693     5  0.0413 Preprocessor1_Model01
##  3 2.21e-10 accuracy binary     0.676     5  0.0336 Preprocessor1_Model02
##  4 2.21e-10 roc_auc  binary     0.693     5  0.0413 Preprocessor1_Model02
##  5 4.89e-10 accuracy binary     0.676     5  0.0336 Preprocessor1_Model03
##  6 4.89e-10 roc_auc  binary     0.693     5  0.0413 Preprocessor1_Model03
##  7 1.08e- 9 accuracy binary     0.676     5  0.0336 Preprocessor1_Model04
##  8 1.08e- 9 roc_auc  binary     0.693     5  0.0413 Preprocessor1_Model04
##  9 2.40e- 9 accuracy binary     0.676     5  0.0336 Preprocessor1_Model05
## 10 2.40e- 9 roc_auc  binary     0.693     5  0.0413 Preprocessor1_Model05
## # ℹ 50 more rows
…
# Crear un nuevo flujo de trabajo, agregar la receta y el modelo, y ajustar al conjunto de datos de entrenamiento en una sola línea
lasso_fit <- workflow() %>%
  add_recipe(receta_lasso) %>%
  add_model(final_lasso) %>%
  fit(data = train_embed)

preds_embed <- test_embed %>%
        select(orientacion) %>%
        bind_cols(predict(lasso_fit, test_embed, type="prob")) %>%
        bind_cols(predict(lasso_fit, test_embed, type="class"))

print(preds_embed)

## # A tibble: 140 × 4
##    orientacion .pred_conservador .pred_progresista .pred_class
##    <fct>                   <dbl>             <dbl> <fct>      
##  1 conservador           0.594            0.406    conservador
##  2 progresista           0.00105          0.999    progresista
##  3 conservador           0.122            0.878    progresista
##  4 progresista           0.487            0.513    progresista
##  5 conservador           0.985            0.0153   conservador
##  6 conservador           0.385            0.615    progresista
##  7 progresista           0.965            0.0354   conservador
##  8 conservador           0.557            0.443    conservador
##  9 progresista           0.0684           0.932    progresista
## 10 conservador           0.999            0.000970 conservador
## # ℹ 130 more rows
…
set.seed(1234)

# Cross validation
embed_folds <- vfold_cv(train_embed, v = 5)

a_tunear_4 <- read_rds('models/a_tunear_4.rds')

Métricas y elección hiperparámetros

# Muestra las métricas en una tibble
a_tunear_4 |> 
  collect_metrics() |> 
  print()

## # A tibble: 120 × 8
##     mtry min_n .metric   .estimator  mean     n std_err .config              
##    <int> <int> <chr>     <chr>      <dbl> <int>   <dbl> <chr>                
##  1    79     4 f_meas    binary     0.564     5  0.0242 Preprocessor1_Model01
##  2    79     4 precision binary     0.534     5  0.0149 Preprocessor1_Model01
##  3    79     4 recall    binary     0.600     5  0.0386 Preprocessor1_Model01
##  4    79     4 roc_auc   binary     0.661     5  0.0168 Preprocessor1_Model01
##  5     5    15 f_meas    binary     0.532     5  0.0350 Preprocessor1_Model02
##  6     5    15 precision binary     0.511     5  0.0204 Preprocessor1_Model02
##  7     5    15 recall    binary     0.562     5  0.0568 Preprocessor1_Model02
##  8     5    15 roc_auc   binary     0.660     5  0.0181 Preprocessor1_Model02
##  9   249    29 f_meas    binary     0.544     5  0.0254 Preprocessor1_Model03
## 10   249    29 precision binary     0.527     5  0.0135 Preprocessor1_Model03
## # ℹ 110 more rows
…
# Crear un nuevo flujo de trabajo, agregar la receta y el modelo, y ajustar al conjunto de datos de entrenamiento en una sola línea
tree_fit <- workflow() %>%
  add_recipe(receta) %>%
  add_model(final_rf) %>%
  fit(data = train_embed)

preds_embed <- test_embed %>%
        select(orientacion) %>%
        bind_cols(predict(tree_fit, test_embed, type="prob")) %>%
        bind_cols(predict(tree_fit, test_embed, type="class"))

print(preds_embed)

## # A tibble: 232 × 4
##    orientacion    .pred_conservador `.pred_no conservador` .pred_class   
##    <fct>                      <dbl>                  <dbl> <fct>         
##  1 no conservador             0.615                  0.385 conservador   
##  2 conservador                0.369                  0.631 no conservador
##  3 no conservador             0.624                  0.376 conservador   
##  4 conservador                0.403                  0.597 no conservador
##  5 conservador                0.540                  0.460 conservador   
##  6 conservador                0.758                  0.241 conservador   
##  7 conservador                0.549                  0.451 conservador   
##  8 conservador                0.642                  0.358 conservador   
##  9 no conservador             0.408                  0.592 no conservador
## 10 conservador                0.280                  0.720 no conservador
## # ℹ 222 more rows
…
